%YAML 1.1
%TAG !u! tag:unity3d.com,2011:
--- !u!114 &11400000
MonoBehaviour:
  m_ObjectHideFlags: 0
  m_PrefabParentObject: {fileID: 0}
  m_PrefabInternal: {fileID: 0}
  m_GameObject: {fileID: 0}
  m_Enabled: 1
  m_EditorHideFlags: 0
  m_Script: {fileID: 11500000, guid: 62c201d50c6d8724eaebb3905cb6b2b7, type: 3}
  m_Name: Stage03
  m_EditorClassIdentifier: 
  enemyShipConfig: {fileID: 11400000, guid: e05a358a5e4b05a4b88b7d28f5458f2b, type: 2}
  squadPosition: {fileID: 114471167138860528, guid: e642d0df59928db49ba1f706743e282c,
    type: 2}
  FireDelay: 4
