%YAML 1.1
%TAG !u! tag:unity3d.com,2011:
--- !u!114 &11400000
MonoBehaviour:
  m_ObjectHideFlags: 0
  m_PrefabParentObject: {fileID: 0}
  m_PrefabInternal: {fileID: 0}
  m_GameObject: {fileID: 0}
  m_Enabled: 1
  m_EditorHideFlags: 0
  m_Script: {fileID: 11500000, guid: 62c201d50c6d8724eaebb3905cb6b2b7, type: 3}
  m_Name: Stage04
  m_EditorClassIdentifier: 
  enemyShipConfig: {fileID: 11400000, guid: cebc290aa956d83419717ab7fe7abaa2, type: 2}
  squadPosition: {fileID: 114450476345732436, guid: e1646ca8c5283e5409a79e9afec3f76e,
    type: 2}
  FireDelay: 3.5
